INDEX VERSION 1.129+/net/homes/u004/j4252/git/ooworkspace/.metadata/.plugins/org.eclipse.jdt.core
1783738750.index
1009208386.index
3640562539.index
1628687906.index
3911332208.index
813341167.index
1260420308.index
1089239932.index
994740315.index
2722355681.index
925982370.index
3530540584.index
3578063223.index
3485262699.index
543401802.index
821608291.index
1615000590.index
3066711521.index
3539432263.index
3883508318.index
2973835558.index
502732891.index
2771262968.index
226184197.index
1369331221.index
2744878784.index
3512161136.index
2253745042.index
2359322674.index
